"Count","Reference","Component","Value","Shape","Order code","Item price","Price"
"4","C13,C14,C9,C10","capacitor pol","1u","CTANT-01","3366024
","0.99","3.96"
"2","C2,C1","capacitor","22p","C-01","1141760
","0.14","0.28"
"1","C30","capacitor pol","10u","CTANT-01","2762118","1.63","1.63"
"21","C4,C5,C6,C15,C16,C11,C12,C17,C18,C19,C20,C21,C22,C24,C23,C25,C26,C27,C28,C29,C3","CAP","100n","C-02","1141777","0.15","3.15"
"2","C7,C8","capacitor pol","470u","CE10-02R","1144701","0.62","1.24"
"10","D1,D2,D3,D4,D5,D8,D9,D10,D11,D12","LED","RED","LED-3MM","2062420","1.20","12.00"
"2","D6,D7","diode","1N4148","DIODE-04","2675146","0.05","0.10"
"1","IC1","atmega644","ATMEGA644","DIL-40","1288340","7.18","7.18"
"4","IC10,IC11,IC12,IC13","24512","24512","DIL-08","1467723","2.05","8.20"
"3","IC14,IC15,IC16","NE555","NE555","DIL-08","3006909","0.44","1.32"
"1","IC2","cny74-4","CNY74-4","DIL-16","1045432","1.83","1.83"
"1","IC3","OPTOCOUPLER","CNY17-4","DIL-06","1469547","0.78","0.78"
"2","IC4,IC5","74153","74153","DIL-16","3006869","1.10","2.20"
"1","IC6","mc101","MC101-475DI-TO","TO-92D","1137304","0.53","0.53"
"2","IC7,IC8","mcp6024","MCP6024","DIL-14","1627199","2.91","5.82"
"1","IC9","7402","7402","DIL-14","3120490","0.62","0.62"
"2","K10,K11","xlr","XLR-F","SIL-1X03","1280896","1.25","2.50"
"1","K12","header2","SCREW-02","SCREW-02","1200125","0.48","0.48"
"1","K13","header4","USB-A","USB-A","1860613","0.38","0.38"
"1","K14","header2x3","HEADER-2X3","SIL-2X03","2751377","0.20","0.20"
"3","K2,K1,K9","PHONEJACK STEREO","JACK-6M3-F","PHONEJACK-STEREO","1835537","1.38","4.14"
"3","K4,K5,K3","din5","DIN5","SIL-1X05","2787097","1.13","3.39"
"1","K6","header2x8","FTDI MM232R","FTDI-MM232R","1146037","20.21","20.21"
"1","K7","header1x16","LCD-DISPLAY","SIL-1X16","2675605","10.61","10.61"
"1","K8","header2x8","HEADER-2X8","SIL-2X08","","0.00","0.00"
"5","R1,R3,R5,R7,R9","R","470","R-04","2329531","0.03","0.15"
"3","R10,R23,R24","R","4k7","R-04","2329534","0.03","0.09"
"4","R11,R14,R13,R12","R","220","R-04","2329500","0.03","0.12"
"3","R15,R16,R35","rvar","ALT-10k","SIL-1X03","9353844","2.91","8.73"
"1","R17","R","47k","R-04","9339558","0.03","0.03"
"1","R18","R","100","R-04","2329473","0.07","0.07"
"1","R19","R","10","R-04","9473912","0.22","0.22"
"10","R2,R4,R6,R8,R20,R37,R38,R41,R44,R47","R","150","R-04","2329482","0.04","0.40"
"6","R21,R39,R42,R45,R48,R49","R","1k","R-04","2329486","0.07","0.42"
"2","R22,R36","rvar","10k","RPOT-MIDIATOR","9353844","2.91","5.82"
"9","R25,R27,R26,R28,R33,R34,R40,R43,R46","R","10k","R-04","2329474","0.07","0.63"
"2","R29,R30","R","100k","R-04","2329472","0.03","0.06"
"2","R31,R32","R","33k","R-04","2329515","0.03","0.06"
"5","S1,S2,S3,S4,S5","SW PUSHBUTTON","PUSHBUTTON","PUSH-TACT","1555988","0.19","0.95"
"1","S6","rotary encoder sw","ROTARY-ENCODER","ROTENC","2064978","5.71","5.71"
"1","T1","bc517","BC517","TO-92D","2575349","0.59","0.59"
"1","X1","crystal","20MHz","HC18U-1","2308718","0.22","0.22"
,,,,,,,"138.92"
